scu_18xx_43xx.h:135:20:Chip_SCU_PinMuxSet	16	static
gpio_18xx_43xx.h:146:20:Chip_GPIO_SetPinDIROutput	16	static
gpio_18xx_43xx.h:375:20:Chip_GPIO_SetPinOutHigh	16	static
gpio_18xx_43xx.h:403:20:Chip_GPIO_SetPortOutLow	24	static
gpio_18xx_43xx.h:417:20:Chip_GPIO_SetPinOutLow	16	static
stopwatch.h:59:24:StopWatch_Elapsed	16	static
stopwatch.h:126:20:StopWatch_DelayUs	24	static
ws2812b.c:37:6:WS2812bInit	16	static
ws2812b.c:44:6:Ws2812bSend	24	static
ws2812b.c:89:13:Ws2812bSendHigh	16	static
ws2812b.c:104:13:Ws2812bSendLow	16	static
ws2812b.c:118:6:Ws2812bSendRet	8	static
ws2812b.c:124:7:Ws2812bConfigGPIO	24	static
ws2812b.c:132:6:nada	4	static
ws2812b.c:134:6:Ws2812bTest	8	static
ws2812b.c:144:6:Ws2812bInterruptDisable	4	static
ws2812b.c:149:6:Ws2812bInterruptActive	4	static
